<?xml version="1.0" encoding="UTF-8" standalone="no"?>
<svg
   xmlns:dc="http://purl.org/dc/elements/1.1/"
   xmlns:cc="http://creativecommons.org/ns#"
   xmlns:rdf="http://www.w3.org/1999/02/22-rdf-syntax-ns#"
   xmlns:svg="http://www.w3.org/2000/svg"
   xmlns="http://www.w3.org/2000/svg"
   xmlns:sodipodi="http://sodipodi.sourceforge.net/DTD/sodipodi-0.dtd"
   xmlns:inkscape="http://www.inkscape.org/namespaces/inkscape"
   version="1.1"
   id="svg893"
   width="128"
   height="128"
   viewBox="0 0 128 128"
   sodipodi:docname="icon_rotate_grainline_horizontal_clockwise.svg"
   inkscape:version="1.0.1 (3bc2e813f5, 2020-09-07)"
   inkscape:export-filename="/home/ronan/Workspace_cpp/valentina/src/app/puzzle/share/resources/puzzleicon/64x64/iconRotateGrainlineHorizontal@2x.png"
   inkscape:export-xdpi="96"
   inkscape:export-ydpi="96">
  <metadata
     id="metadata899">
    <rdf:RDF>
      <cc:Work
         rdf:about="">
        <dc:format>image/svg+xml</dc:format>
        <dc:type
           rdf:resource="http://purl.org/dc/dcmitype/StillImage" />
        <dc:title></dc:title>
      </cc:Work>
    </rdf:RDF>
  </metadata>
  <defs
     id="defs897" />
  <sodipodi:namedview
     pagecolor="#ffffff"
     bordercolor="#666666"
     borderopacity="1"
     objecttolerance="10"
     gridtolerance="10"
     guidetolerance="10"
     inkscape:pageopacity="0"
     inkscape:pageshadow="2"
     inkscape:window-width="1920"
     inkscape:window-height="1043"
     id="namedview895"
     showgrid="false"
     inkscape:zoom="1.9070797"
     inkscape:cx="73.591374"
     inkscape:cy="127.65689"
     inkscape:window-x="1920"
     inkscape:window-y="0"
     inkscape:window-maximized="1"
     inkscape:current-layer="g901"
     showguides="false"
     inkscape:lockguides="false"
     inkscape:document-rotation="0" />
  <g
     inkscape:groupmode="layer"
     inkscape:label="Image"
     id="g901">
    <g
       id="g2862"
       style="fill:#000000">
      <path
         id="path1502-1"
         style="color:#000000;font-style:normal;font-variant:normal;font-weight:normal;font-stretch:normal;font-size:medium;line-height:normal;font-family:sans-serif;font-variant-ligatures:normal;font-variant-position:normal;font-variant-caps:normal;font-variant-numeric:normal;font-variant-alternates:normal;font-variant-east-asian:normal;font-feature-settings:normal;font-variation-settings:normal;text-indent:0;text-align:start;text-decoration:none;text-decoration-line:none;text-decoration-style:solid;text-decoration-color:#000000;letter-spacing:normal;word-spacing:normal;text-transform:none;writing-mode:lr-tb;direction:ltr;text-orientation:mixed;dominant-baseline:auto;baseline-shift:baseline;text-anchor:start;white-space:normal;shape-padding:0;shape-margin:0;inline-size:0;clip-rule:nonzero;display:inline;overflow:visible;visibility:visible;opacity:1;isolation:auto;mix-blend-mode:normal;color-interpolation:sRGB;color-interpolation-filters:linearRGB;solid-color:#000000;solid-opacity:1;vector-effect:none;fill:#000000;fill-opacity:1;fill-rule:nonzero;stroke:none;stroke-width:15.9493;stroke-linecap:butt;stroke-linejoin:miter;stroke-miterlimit:4;stroke-dasharray:none;stroke-dashoffset:0;stroke-opacity:1;color-rendering:auto;image-rendering:auto;shape-rendering:auto;text-rendering:auto;enable-background:accumulate;stop-color:#000000;stop-opacity:1"
         d="M 60.996394,0.20303699 C 58.149666,0.24970079 55.302575,0.50557789 52.47989,0.98233389 31.348865,4.5513981 17.373357,18.181529 9.9177848,37.306553 L -0.11309389,29.747959 8.1138972,59.484287 31.044802,41.206943 18.540073,40.007724 C 24.163438,26.379894 38.59788,11.662388 53.686194,8.5194431 56.908693,7.8481862 60.45821,7.3123197 63.862041,7.4453147 c 0,0 -0.0094,-3.1734682 -0.01877,-7.21884021 -0.947752,-0.030357 -1.897966,-0.038992 -2.846876,-0.023437 z m 2.865647,7.24227771 c 3.40383,-0.132995 6.956636,0.4028716 10.179135,1.0741284 15.088313,3.1429449 29.522754,17.8604509 35.146114,31.4882809 l -12.502866,1.199219 22.930896,18.277344 8.22699,-29.736328 -10.03088,7.558594 C 110.35586,18.181529 96.378506,4.5513978 75.24748,0.98233389 71.4839,0.34665889 67.634281,0.10504749 63.84327,0.22647449 63.83387,4.2718465 63.86204,7.4453147 63.862041,7.4453147 Z"
         sodipodi:nodetypes="sscccccsccscscccccscc" />
    </g>
    <path
       style="fill:#000000;fill-opacity:1;stroke:#000000;stroke-width:0.267085px;stroke-linecap:butt;stroke-linejoin:miter;stroke-opacity:1"
       d="m 101.4024,97.530244 -0.16286,-12.678896 -72.108879,0.170445 -0.0485,12.272785 -17.45021,-15.328335 17.49634,-15.217299 0.10731,12.160556 72.067279,0.126254 -0.13651,-12.556319 17.57604,15.800751 z"
       id="path815"
       inkscape:connector-curvature="0"
       sodipodi:nodetypes="ccccccccccc" />
  </g>
</svg>
