<?xml version="1.0" encoding="UTF-8" standalone="no"?>
<svg
   xmlns:dc="http://purl.org/dc/elements/1.1/"
   xmlns:cc="http://creativecommons.org/ns#"
   xmlns:rdf="http://www.w3.org/1999/02/22-rdf-syntax-ns#"
   xmlns:svg="http://www.w3.org/2000/svg"
   xmlns="http://www.w3.org/2000/svg"
   xmlns:sodipodi="http://sodipodi.sourceforge.net/DTD/sodipodi-0.dtd"
   xmlns:inkscape="http://www.inkscape.org/namespaces/inkscape"
   version="1.1"
   id="svg893"
   width="128"
   height="128"
   viewBox="0 0 128 128"
   sodipodi:docname="icon_rotate_90_clockwise.svg"
   inkscape:version="1.0.1 (3bc2e813f5, 2020-09-07)"
   inkscape:export-filename="/home/ronan/Workspace_cpp/valentina/src/app/puzzle/share/resources/puzzleicon/64x64/iconRotate90Clockwise@2x.png"
   inkscape:export-xdpi="96"
   inkscape:export-ydpi="96">
  <metadata
     id="metadata899">
    <rdf:RDF>
      <cc:Work
         rdf:about="">
        <dc:format>image/svg+xml</dc:format>
        <dc:type
           rdf:resource="http://purl.org/dc/dcmitype/StillImage" />
        <dc:title></dc:title>
      </cc:Work>
    </rdf:RDF>
  </metadata>
  <defs
     id="defs897" />
  <sodipodi:namedview
     pagecolor="#ffffff"
     bordercolor="#666666"
     borderopacity="1"
     objecttolerance="10"
     gridtolerance="10"
     guidetolerance="10"
     inkscape:pageopacity="0"
     inkscape:pageshadow="2"
     inkscape:window-width="1920"
     inkscape:window-height="1043"
     id="namedview895"
     showgrid="false"
     inkscape:zoom="1.9070797"
     inkscape:cx="-10.361902"
     inkscape:cy="69.818165"
     inkscape:window-x="1920"
     inkscape:window-y="0"
     inkscape:window-maximized="1"
     inkscape:current-layer="g901"
     showguides="false"
     inkscape:lockguides="false"
     inkscape:document-rotation="0" />
  <g
     inkscape:groupmode="layer"
     inkscape:label="Image"
     id="g901">
    <path
       id="path1502"
       style="color:#000000;font-style:normal;font-variant:normal;font-weight:normal;font-stretch:normal;font-size:medium;line-height:normal;font-family:sans-serif;font-variant-ligatures:normal;font-variant-position:normal;font-variant-caps:normal;font-variant-numeric:normal;font-variant-alternates:normal;font-variant-east-asian:normal;font-feature-settings:normal;font-variation-settings:normal;text-indent:0;text-align:start;text-decoration:none;text-decoration-line:none;text-decoration-style:solid;text-decoration-color:#000000;letter-spacing:normal;word-spacing:normal;text-transform:none;writing-mode:lr-tb;direction:ltr;text-orientation:mixed;dominant-baseline:auto;baseline-shift:baseline;text-anchor:start;white-space:normal;shape-padding:0;shape-margin:0;inline-size:0;clip-rule:nonzero;display:inline;overflow:visible;visibility:visible;opacity:1;isolation:auto;mix-blend-mode:normal;color-interpolation:sRGB;color-interpolation-filters:linearRGB;solid-color:#000000;solid-opacity:1;vector-effect:none;fill:#000000;fill-opacity:1;fill-rule:nonzero;stroke:none;stroke-width:16.3619;stroke-linecap:butt;stroke-linejoin:miter;stroke-miterlimit:4;stroke-dasharray:none;stroke-dashoffset:0;stroke-opacity:1;color-rendering:auto;image-rendering:auto;shape-rendering:auto;text-rendering:auto;enable-background:accumulate;stop-color:#000000;stop-opacity:1"
       d="M 72.086781,2.9375026 C 94.325374,6.5065667 109.03398,20.13637 116.88033,39.261394 l 10.55715,-7.55689 -8.65861,29.734413 -24.132274,-18.27558 13.158624,-1.199111 C 101.88711,28.336396 86.696368,13.618412 70.817208,10.475466 44.49223,5.26499 9.6665336,25.305285 9.0563236,54.737111 5.7872636,54.651411 3.9054836,54.618309 0.54579357,54.481046 0.71905357,20.979551 38.118984,-2.5139775 72.086781,2.9375026 Z"
       sodipodi:nodetypes="scccccsccs" />
    <text
       xml:space="preserve"
       style="font-style:normal;font-weight:normal;font-size:80.5149px;line-height:1.25;font-family:sans-serif;letter-spacing:0px;word-spacing:0px;fill:#000000;fill-opacity:1;stroke:none;stroke-width:1.25804"
       x="18.815292"
       y="103.3251"
       id="text1480"
       transform="scale(0.94780675,1.0550674)"><tspan
         sodipodi:role="line"
         id="tspan1478"
         x="18.815292"
         y="103.3251"
         style="font-style:normal;font-variant:normal;font-weight:normal;font-stretch:normal;font-size:80.5149px;font-family:Garuda;-inkscape-font-specification:Garuda;stroke-width:1.25804">90</tspan></text>
  </g>
</svg>
